{
  "files": {
    "main.css": "/static/css/main.bfab3071.css",
    "main.js": "/static/js/main.9310167f.js",
    "static/js/787.acfe04bb.chunk.js": "/static/js/787.acfe04bb.chunk.js",
    "static/media/Roboto-Regular.ttf": "/static/media/Roboto-Regular.a8d6ac03c7b96b7acb62.ttf",
    "index.html": "/index.html",
    "main.bfab3071.css.map": "/static/css/main.bfab3071.css.map",
    "main.9310167f.js.map": "/static/js/main.9310167f.js.map",
    "787.acfe04bb.chunk.js.map": "/static/js/787.acfe04bb.chunk.js.map"
  },
  "entrypoints": [
    "static/css/main.bfab3071.css",
    "static/js/main.9310167f.js"
  ]
}